[
   {
    "id": "00031",
    "title": "Cars",
    "author": "3d Wallpaper",
    "site": "",
    "test": false
  },
  {
    "id": "00032",
    "title": "Cars",
    "author": "3d Wallpaper",
    "site": "",
    "test": false
  },
 {
    "id": "00033",
    "title": "Cars",
    "author": "3d Wallpaper",
    "site": "",
    "test": false
  },
  {
    "id": "00034",
    "title": "Cars",
    "author": "3d Wallpaper",
    "site": "",
    "test": false
  },
  {
    "id": "00035",
    "title": "Cars",
    "author": "3d Wallpaper",
    "site": "",
    "test": false
  },
 {
    "id": "00036",
    "title": "Cars",
    "author": "3d Wallpaper",
    "site": "",
    "test": false
  },
  {
    "id": "00037",
    "title": "Cars",
    "author": "3d Wallpaper",
    "site": "",
    "test": false
  },
  {
    "id": "00038",
    "title": "Cars",
    "author": "3d Wallpaper",
    "site": "",
    "test": false
  },
 {
    "id": "00039",
    "title": "Cars",
    "author": "3d Wallpaper",
    "site": "",
    "test": false
  }
]
